axi_i2c/axi_i2c.sim/sim_1/behav/xsim/tb_axi_i2c.vcd
$date
   Wed May  6 18:41:59 2026
$end
$version
  2020.2
$end
$timescale
  1ps
$end
$scope module tb_axi_i2c_simple $end
$var reg 1 ! clk $end
$var reg 1 " resetn $end
$var reg 4 # axi_awaddr [3:0] $end
$var reg 1 $ axi_awvalid $end
$var wire 1 % axi_awready $end
$var reg 32 & axi_wdata [31:0] $end
$var reg 4 ' axi_wstrb [3:0] $end
$var reg 1 ( axi_wvalid $end
$var wire 1 ) axi_wready $end
$var wire 2 * axi_bresp [1:0] $end
$var wire 1 + axi_bvalid $end
$var reg 1 , axi_bready $end
$var reg 4 - axi_araddr [3:0] $end
$var reg 1 . axi_arvalid $end
$var wire 1 / axi_arready $end
$var wire 32 0 axi_rdata [31:0] $end
$var wire 2 1 axi_rresp [1:0] $end
$var wire 1 2 axi_rvalid $end
$var reg 1 3 axi_rready $end
$var wire 1 4 scl $end
$var wire 1 5 sda $end
$var reg 32 6 read_data [31:0] $end
$scope module DUT $end
$var wire 1 4 scl $end
$var wire 1 5 sda $end
$var wire 1 7 s00_axi_aclk $end
$var wire 1 8 s00_axi_aresetn $end
$var wire 4 9 s00_axi_awaddr [3:0] $end
$var wire 3 : s00_axi_awprot [2:0] $end
$var wire 1 ; s00_axi_awvalid $end
$var wire 1 % s00_axi_awready $end
$var wire 32 < s00_axi_wdata [31:0] $end
$var wire 4 = s00_axi_wstrb [3:0] $end
$var wire 1 > s00_axi_wvalid $end
$var wire 1 ) s00_axi_wready $end
$var wire 2 * s00_axi_bresp [1:0] $end
$var wire 1 + s00_axi_bvalid $end
$var wire 1 ? s00_axi_bready $end
$var wire 4 @ s00_axi_araddr [3:0] $end
$var wire 3 A s00_axi_arprot [2:0] $end
$var wire 1 B s00_axi_arvalid $end
$var wire 1 / s00_axi_arready $end
$var wire 32 0 s00_axi_rdata [31:0] $end
$var wire 2 1 s00_axi_rresp [1:0] $end
$var wire 1 2 s00_axi_rvalid $end
$var wire 1 C s00_axi_rready $end
$var wire 1 D start_pulse $end
$var wire 1 E rw_mode $end
$var wire 7 F slave_addr_w [6:0] $end
$var wire 8 G clk_div [7:0] $end
$var wire 16 H tx_data [15:0] $end
$var wire 16 I rx_data [15:0] $end
$var wire 1 J done $end
$var wire 1 K busy $end
$var wire 1 L sda_o $end
$var wire 1 M sda_i $end
$var parameter 0 N C_S00_AXI_DATA_WIDTH $end
$var parameter 0 O C_S00_AXI_ADDR_WIDTH $end
$scope module axi_i2c_v1_0_S00_AXI_inst $end
$var wire 1 D start_pulse $end
$var wire 1 E rw_mode $end
$var wire 7 F slave_addr [6:0] $end
$var wire 8 G clk_div [7:0] $end
$var wire 16 H tx_data [15:0] $end
$var wire 16 I rx_data [15:0] $end
$var wire 1 J done $end
$var wire 1 K busy $end
$var wire 1 7 S_AXI_ACLK $end
$var wire 1 8 S_AXI_ARESETN $end
$var wire 4 9 S_AXI_AWADDR [3:0] $end
$var wire 3 : S_AXI_AWPROT [2:0] $end
$var wire 1 ; S_AXI_AWVALID $end
$var wire 1 % S_AXI_AWREADY $end
$var wire 32 < S_AXI_WDATA [31:0] $end
$var wire 4 = S_AXI_WSTRB [3:0] $end
$var wire 1 > S_AXI_WVALID $end
$var wire 1 ) S_AXI_WREADY $end
$var wire 2 * S_AXI_BRESP [1:0] $end
$var wire 1 + S_AXI_BVALID $end
$var wire 1 ? S_AXI_BREADY $end
$var wire 4 @ S_AXI_ARADDR [3:0] $end
$var wire 3 A S_AXI_ARPROT [2:0] $end
$var wire 1 B S_AXI_ARVALID $end
$var wire 1 / S_AXI_ARREADY $end
$var wire 32 0 S_AXI_RDATA [31:0] $end
$var wire 2 1 S_AXI_RRESP [1:0] $end
$var wire 1 2 S_AXI_RVALID $end
$var wire 1 C S_AXI_RREADY $end
$var reg 4 P axi_awaddr [3:0] $end
$var reg 1 Q axi_awready $end
$var reg 1 R axi_wready $end
$var reg 2 S axi_bresp [1:0] $end
$var reg 1 T axi_bvalid $end
$var reg 4 U axi_araddr [3:0] $end
$var reg 1 V axi_arready $end
$var reg 32 W axi_rdata [31:0] $end
$var reg 2 X axi_rresp [1:0] $end
$var reg 1 Y axi_rvalid $end
$var reg 32 Z slv_reg0 [31:0] $end
$var reg 32 [ slv_reg1 [31:0] $end
$var reg 32 \ slv_reg2 [31:0] $end
$var reg 32 ] slv_reg3 [31:0] $end
$var wire 1 ^ slv_reg_rden $end
$var wire 1 _ slv_reg_wren $end
$var reg 32 ` reg_data_out [31:0] $end
$var integer 32 a byte_index $end
$var reg 1 b aw_en $end
$var reg 1 c start_d $end
$var reg 1 d done_latch $end
$var parameter 0 e C_S_AXI_DATA_WIDTH $end
$var parameter 0 f C_S_AXI_ADDR_WIDTH $end
$var parameter 0 g ADDR_LSB $end
$var parameter 0 h OPT_MEM_ADDR_BITS $end
$upscope $end
$scope module U_I2C_MASTER $end
$var wire 1 7 clk $end
$var wire 1 i reset $end
$var wire 7 F slave_addr [6:0] $end
$var wire 1 E rw $end
$var wire 8 G clk_div [7:0] $end
$var wire 16 H tx_data [15:0] $end
$var wire 1 D start $end
$var wire 1 M sda_i $end
$var reg 16 j rx_data [15:0] $end
$var reg 1 k done $end
$var reg 1 l busy $end
$var reg 1 m scl_o $end
$var reg 1 n sda_o $end
$var reg 4 o state [3:0] $end
$var reg 8 p div_cnt [7:0] $end
$var reg 1 q half_tick $end
$var reg 1 r step $end
$var reg 3 s bit_cnt [2:0] $end
$var reg 8 t shift_out [7:0] $end
$var reg 8 u shift_in [7:0] $end
$var reg 2 v byte_phase [1:0] $end
$var reg 1 w is_read $end
$var parameter 4 x IDLE [3:0] $end
$var parameter 4 y START_S [3:0] $end
$var parameter 4 z TX_BIT [3:0] $end
$var parameter 4 { RX_ACK [3:0] $end
$var parameter 4 | RX_BIT [3:0] $end
$var parameter 4 } TX_ACK [3:0] $end
$var parameter 4 ~ STOP_S [3:0] $end
$upscope $end
$upscope $end
$scope task axi_write $end
$var reg 4 !! addr [3:0] $end
$var reg 32 "! data [31:0] $end
$var integer 32 #! timeout $end
$var reg 2 $! resp [1:0] $end
$upscope $end
$scope task axi_read $end
$var reg 4 %! addr [3:0] $end
$var reg 32 &! data [31:0] $end
$var integer 32 '! timeout $end
$var reg 2 (! resp [1:0] $end
$upscope $end
$upscope $end
$enddefinitions $end
#0
$dumpvars
0!
bx !!
0"
bx "!
bx #
bx #!
0$
bx $!
x%
bx %!
bx &
bx &!
bx '
bx '!
0(
bx (!
x)
bx *
x+
0,
bx -
0.
x/
bx 0
bx 1
x2
03
14
z5
bx 6
07
08
bx 9
b0 :
0;
bx <
bx =
0>
0?
bx @
b0 A
0B
0C
xD
xE
bx F
bx G
bx H
b0 I
0J
0K
1L
zM
b100000 N
b100 O
bx P
xQ
xR
bx S
xT
bx U
xV
bx W
bx X
xY
bx Z
bx [
bx \
bx ]
0^
0_
b0 `
bx a
xb
xc
xd
b100000 e
b100 f
b10 g
b1 h
1i
b0 j
0k
0l
1m
1n
b0 o
b0 p
0q
0r
b0 s
b0 t
b0 u
b0 v
0w
b0 x
b1 y
b10 z
b11 {
b100 |
b101 }
b110 ~
$end
#5000
1!
0%
0)
b0 *
0+
0/
b0 0
b0 1
02
17
0D
0E
b0 F
b0 G
b0 H
b0 P
0Q
0R
b0 S
0T
b0 U
0V
b0 W
b0 X
0Y
b0 Z
b0 [
b0 \
1b
0c
0d
#10000
0!
07
#15000
1!
17
#20000
0!
07
#25000
1!
17
#30000
0!
07
#35000
1!
17
#40000
0!
07
#45000
1!
17
#50000
0!
07
#55000
1!
17
#60000
0!
07
#65000
1!
17
#70000
0!
07
#75000
1!
17
#80000
0!
07
#85000
1!
17
#90000
0!
07
#95000
1!
17
#100000
0!
1"
07
18
0i
#105000
1!
17
#110000
0!
07
#115000
1!
17
#120000
0!
07
#125000
1!
17
#130000
0!
07
#135000
1!
17
#140000
0!
07
#145000
1!
17
#150000
0!
b100 !!
b10000 "!
07
#155000
1!
b100 #
b0 #!
1$
1%
b10000 &
b1111 '
1(
1)
1,
17
b100 9
1;
b10000 <
b1111 =
1>
1?
b100 P
1Q
1R
1_
0b
#160000
0!
07
#165000
1!
b1 #!
0%
0)
1+
17
b10000 G
0Q
0R
1T
b10000 [
0_
b100 a
#170000
0!
07
#175000
1!
b0 #!
0$
b0 $!
0(
0+
17
0;
0>
0T
1b
#180000
0!
07
#185000
1!
0,
17
0?
#190000
0!
07
#195000
1!
17
#200000
0!
07
#205000
1!
17
#210000
0!
07
#215000
1!
17
#220000
0!
07
#225000
1!
17
#230000
0!
07
#235000
1!
17
#240000
0!
07
#245000
1!
17
#250000
0!
07
#255000
1!
17
#260000
0!
07
#265000
1!
17
#270000
0!
07
#275000
1!
17
#280000
0!
07
#285000
1!
17
#290000
0!
07
#295000
1!
17
#300000
0!
07
#305000
1!
17
#310000
0!
07
#315000
1!
17
#320000
0!
07
#325000
1!
17
#330000
0!
07
#335000
1!
17
#340000
0!
07
#345000
1!
17
#350000
0!
07
#355000
1!
17
#360000
0!
07
#365000
1!
17
#370000
0!
07
#375000
1!
17
#380000
0!
07
#385000
1!
b1000 !!
b1010101111001101 "!
b1000 #
1$
1%
b1010101111001101 &
b1111 '
1(
1)
1,
17
b1000 9
1;
b1010101111001101 <
1>
1?
b1000 P
1Q
1R
1_
0b
#390000
0!
07
#395000
1!
b1 #!
0%
0)
1+
17
b1010101111001101 H
0Q
0R
1T
b1010101111001101 \
0_
b100 a
#400000
0!
07
#405000
1!
b0 #!
0$
0(
0+
17
0;
0>
0T
1b
#410000
0!
07
#415000
1!
0,
17
0?
#420000
0!
07
#425000
1!
17
#430000
0!
07
#435000
1!
17
#440000
0!
07
#445000
1!
17
#450000
0!
07
#455000
1!
17
#460000
0!
07
#465000
1!
17
#470000
0!
07
#475000
1!
17
#480000
0!
07
#485000
1!
17
#490000
0!
07
#495000
1!
17
#500000
0!
07
#505000
1!
17
#510000
0!
07
#515000
1!
17
#520000
0!
07
#525000
1!
17
#530000
0!
07
#535000
1!
17
#540000
0!
07
#545000
1!
17
#550000
0!
07
#555000
1!
17
#560000
0!
07
#565000
1!
17
#570000
0!
07
#575000
1!
17
#580000
0!
07
#585000
1!
17
#590000
0!
07
#595000
1!
17
#600000
0!
07
#605000
1!
17
#610000
0!
07
#615000
1!
b0 !!
b10100000000001 "!
b0 #
1$
1%
b10100000000001 &
b1111 '
1(
1)
1,
17
b0 9
1;
b10100000000001 <
1>
1?
b0 P
1Q
1R
1_
0b
#620000
0!
07
#625000
1!
b1 #!
0%
0)
1+
17
1D
b1010000 F
0Q
0R
1T
b10100000000001 Z
0_
b10100000000001 `
b100 a
#630000
0!
07
#635000
1!
b0 #!
0$
0(
0+
17
0;
0>
0D
1K
0T
1b
1c
1l
b1 o
b10100000 t
#640000
0!
07
#645000
1!
0,
17
0?
b1 p
#650000
0!
07
#655000
1!
17
b10 p
#660000
0!
07
#665000
1!
17
b11 p
#670000
0!
07
#675000
1!
17
b100 p
#680000
0!
07
#685000
1!
17
b101 p
#690000
0!
07
#695000
1!
17
b110 p
#700000
0!
07
#705000
1!
17
b111 p
#710000
0!
07
#715000
1!
17
b1000 p
#720000
0!
07
#725000
1!
17
b1001 p
#730000
0!
07
#735000
1!
17
b1010 p
#740000
0!
07
#745000
1!
17
b1011 p
#750000
0!
07
#755000
1!
17
b1100 p
#760000
0!
07
#765000
1!
17
b1101 p
#770000
0!
07
#775000
1!
17
b1110 p
#780000
0!
07
#785000
1!
17
b1111 p
#790000
0!
07
#795000
1!
17
b10000 p
#800000
0!
07
#805000
1!
17
b0 p
1q
#810000
0!
07
#815000
1!
05
17
0L
0M
0n
b1 p
0q
1r
#820000
0!
07
#825000
1!
17
b10 p
#830000
0!
07
#835000
1!
17
b11 p
#840000
0!
07
#845000
1!
b1100 %!
b0 '!
b1100 -
1.
1/
13
17
b1100 @
1B
1C
b1100 U
1V
1^
b100000000000000000 `
b100 p
#850000
0!
07
#855000
1!
b1 '!
0/
b100000000000000000 0
12
17
0V
b100000000000000000 W
1Y
0^
b101 p
#860000
0!
07
#865000
1!
b100000000000000000 &!
b0 '!
b0 (!
0.
02
17
0B
0Y
b110 p
#870000
0!
07
#875000
1!
03
b100000000000000000 6
17
0C
b111 p
#880000
0!
07
#885000
1!
17
b1000 p
#890000
0!
07
#895000
1!
17
b1001 p
#900000
0!
07
#905000
1!
17
b1010 p
#910000
0!
07
#915000
1!
17
b1011 p
#920000
0!
07
#925000
1!
17
b1100 p
#930000
0!
07
#935000
1!
17
b1101 p
#940000
0!
07
#945000
1!
17
b1110 p
#950000
0!
07
#955000
1!
17
b1111 p
#960000
0!
07
#965000
1!
17
b10000 p
#970000
0!
07
#975000
1!
17
b0 p
1q
#980000
0!
07
#985000
1!
04
z5
17
1L
zM
0m
1n
b10 o
b1 p
0q
0r
b1000000 t
#990000
0!
07
#995000
1!
17
b10 p
